…
## Reading .cwa files

[`axivity_read_cwa()`](https://axr.circadia-lab.uk/reference/axivity_read_cwa.md)
doesn’t need a live device at all – it works on any `.cwa`/AX6 file
already on disk, whether that’s one you downloaded with
[`axivity_download()`](https://axr.circadia-lab.uk/reference/axivity_download.md)/[`axivity_copy_data()`](https://axr.circadia-lab.uk/reference/axivity_copy_data.md),
or the file sitting directly on the device’s still-mounted volume
(there’s no need to copy it first just to read it):

``` r

data <- axivity_read_cwa("~/axr_test_data/CWA-DATA.CWA")
data
#> # A tibble: 11,621,520 × 8
#>    timestamp                x       y     z light temperature_c battery_pct sample_rate
#>    <dttm>               <dbl>   <dbl> <dbl> <int>         <dbl>       <int>       <int>
#>  1 2026-07-14 12:34:48 -0.281 -0.484  0.688     1         -28.3           0         120
#>  2 2026-07-14 12:34:48 -0.656 -0.109  0.562     1         -28.3           0         120
#>  3 2026-07-14 12:34:48 -0.703 -0.109  0.594     1         -28.3           0         120
#>  4 2026-07-14 12:34:48 -0.703 -0.125  0.609     1         -28.3           0         120
#>  5 2026-07-14 12:34:48 -0.703 -0.125  0.609     1         -28.3           0         120
#>  6 2026-07-14 12:34:48 -0.703 -0.109  0.594     1         -28.3           0         120
#>  7 2026-07-14 12:34:48 -0.703 -0.109  0.578     1         -28.3           0         120
#>  8 2026-07-14 12:34:48 -0.703 -0.0938 0.594     1         -28.3           0         120
#>  9 2026-07-14 12:34:48 -0.703 -0.0938 0.609     1         -28.3           0         120
#> 10 2026-07-14 12:34:48 -0.719 -0.109  0.594     1         -28.3           0         120
#> # ℹ 11,621,510 more rows
```
…
